…
# Some sample data
df <- data_frame(date = sample(seq(as.Date('2000-01-01'),
                                   as.Date('2005-12-30'), by = "day"), 25)) %>%
  bind_rows(data.frame(date = sample(seq(as.Date('2009-01-01'),
                                         as.Date('2011-12-30'), by = "day"), 25))) %>%
  arrange(date) %>%
  mutate(value = 1:50)

# Use length function in tbr_misc to calculate n samples used in the rolling function
df <- df %>%
  tbr_misc(x = value, tcolumn = date, unit = "years", n = 5, func = length)
df
## # A tibble: 50 x 5
##    date       value results min_date   max_date  
##    <date>     <int>   <int> <date>     <date>    
##  1 2000-02-07     1       1 2000-02-07 2000-02-07
##  2 2000-04-01     2       2 2000-02-07 2000-04-01
##  3 2000-05-26     3       3 2000-02-07 2000-05-26
##  4 2000-09-16     4       4 2000-02-07 2000-09-16
##  5 2000-10-20     5       5 2000-02-07 2000-10-20
##  6 2000-12-24     6       6 2000-02-07 2000-12-24
##  7 2001-05-16     7       7 2000-02-07 2001-05-16
##  8 2001-06-13     8       8 2000-02-07 2001-06-13
##  9 2002-02-01     9       9 2000-02-07 2002-02-01
## 10 2002-04-12    10      10 2000-02-07 2002-04-12
## # ... with 40 more rows
…
head(df)
##         date     value
## 1 2005-07-16 161.34566
## 2 2004-08-20  14.51295
## 3 2009-12-08  43.30075
## 4 2001-01-05  54.95578
## 5 2008-06-05  66.80542
## 6 2008-09-12 254.36060

## apply the geomean to each row
df <- tbr_gmean(df, x = value, tcolumn = date,
                unit = "years", n = 5, conf.level = 0.95)
df
## # A tibble: 68 x 5
##    date       value  mean lwr.ci upr.ci
##    <date>     <dbl> <dbl>  <dbl>  <dbl>
##  1 2001-01-05  55.0  NA     NA     NA  
##  2 2002-03-15  58.6  56.8   55.0   58.6
##  3 2002-05-01 198.   86.1   37.4  135. 
##  4 2003-01-22 113.   92.0   56.8  149. 
##  5 2003-01-27  68.0  86.6   58.9  128. 
##  6 2003-03-25 153.   95.3   64.4  135. 
##  7 2003-07-19 169.  103.    70.4  150. 
##  8 2003-09-03 114.  105.    75.6  145. 
##  9 2003-09-17  63.0  98.9   74.2  134. 
## 10 2003-10-09  21.2  84.8   57.4  126. 
## # ... with 58 more rows
## tidy pipeline sample. sample data with breaks
set.seed(100)

df <- data.frame(date = sample(seq(as.Date('2000-01-01'), 
                                   as.Date('2007-12-30'), by = "day"), 25),
                 value = rexp(25, 1/100)) %>%
  bind_rows(data.frame(date = sample(seq(as.Date('2009-01-01'), 
                                         as.Date('2011-12-30'), by = "day"), 5),
                       value = rexp(5, 1/1000)))

df <- df %>%
  tbr_gmean(x = value, tcolumn = date, unit = "years",
            n = 5, conf.level = 0.95)
df
## # A tibble: 30 x 5
##    date       value  mean lwr.ci upr.ci
##    <date>     <dbl> <dbl>  <dbl>  <dbl>
##  1 2000-06-13  93.5  NA     NA     NA  
##  2 2001-05-10  20.7  44.0   20.7   93.5
##  3 2001-08-17 223.   75.5   25.6  276. 
##  4 2002-01-22  54.1  69.4   30.9  144. 
##  5 2002-03-26 102.   74.9   39.8  166. 
##  6 2002-06-17 176.   86.4   47.1  176. 
##  7 2002-11-04 114.   89.9   55.0  164. 
##  8 2002-11-09  35.3  80.0   47.7  135. 
##  9 2002-12-15  55.5  76.8   48.6  122. 
## 10 2003-03-04 198.   84.4   52.4  135. 
## # ... with 20 more rows
…
