Time-Based Rolling Binomial Probability — tbr_binom • tbrf
…
    binom_ci

    Examples

## Generate Sample Data
df <- tibble::tibble(
date = sample(seq(as.Date('2000-01-01'), as.Date('2015/12/30'), by = "day"), 100),
value = rbinom(100, 1, 0.25)
)

## Run Function
tbr_binom(df, x = value,
tcolumn = date, unit = "years", n = 5,
alpha = 0.1, na.pad = FALSE)
#> # A tibble: 100 × 5
#>    date       value PointEst  Lower Upper
#>    <date>     <int>    <dbl>  <dbl> <dbl>
#>  1 2000-01-13     0    0     0      0.895
#>  2 2000-05-09     1    0.5   0.0527 0.947
#>  3 2000-07-15     1    0.667 0.254  0.965
#>  4 2001-05-16     1    0.75  0.356  0.974
#>  5 2001-08-11     1    0.8   0.435  0.979
#>  6 2001-10-04     0    0.667 0.347  0.883
#>  7 2002-01-15     0    0.571 0.289  0.814
#>  8 2002-01-21     1    0.625 0.348  0.839
#>  9 2002-01-22     0    0.556 0.303  0.782
#> 10 2002-02-11     1    0.6   0.352  0.806
#> # ℹ 90 more rows
…
