Time-Based Rolling Functions • tbrf
…
x = column containing the values to calculate the statistic on

tcolumn = formatted date-time or date column

unit = character indicating the time unit used, one of "years", "months", "weeks", "days", "hours", "minutes", "seconds"

n = numeric, indicating the window length

Basic Example

For example, get the 5-year rolling mean:

tbr_mean(Dissolved_Oxygen, x = Average_DO,
         tcolumn = Date, unit = "years", n = 5)
## # A tibble: 236 x 9
##    Station_ID Date       Param_Code Param_Desc     Average_DO Min_DO  mean
##         <int> <date>     <chr>      <chr>               <dbl>  <dbl> <dbl>
##  1      12515 2000-01-03 00300      OXYGEN, DISSO~       6.19   6.19 NA   
##  2      12515 2000-03-14 00300      OXYGEN, DISSO~       6.7    6.7   6.73
##  3      12517 2000-03-14 00300      OXYGEN, DISSO~       7.3    7.3   6.73
##  4      12515 2000-03-16 00300      OXYGEN, DISSO~       6.41   6.41  6.65
##  5      12515 2000-05-03 00300      OXYGEN, DISSO~       4.42   4.42  6.20
##  6      12517 2000-06-14 00300      OXYGEN, DISSO~       5.74   5.74  6.13
##  7      12515 2000-06-15 00300      OXYGEN, DISSO~       4.86   4.86  5.95
##  8      12515 2000-07-11 00300      OXYGEN, DISSO~       4.48   4.48  5.76
##  9      12515 2000-09-12 00300      OXYGEN, DISSO~       5.64   5.64  5.75
## 10      12517 2000-10-17 00300      OXYGEN, DISSO~       7.96   7.96  5.97
## # ... with 226 more rows, and 2 more variables: lwr.ci <dbl>, upr.ci <dbl>
…
