tbrf Introduction • tbrf
…
Core functions include five arguments.

.tbl = dataframe used by the function
x = column containing the values to calculate the statistic on
tcolumn = formatted date-time or date column
unit = character indicating the time unit used, one of "years", "months", "weeks", "days", "hours", "minutes", "seconds"
n = numeric, indicating the window length

If we want a 10-year rolling mean for the
Dissolved_Oxygen dataset:

tbr_mean(Dissolved_Oxygen, x = Average_DO,
         tcolumn = Date, unit = "years", n = 10)
#> # A tibble: 236 × 9
#>    Station_ID Date       Param_Code Param_Desc    Average_DO Min_DO  mean lwr_ci
#>         <int> <date>     <chr>      <chr>              <dbl>  <dbl> <dbl> <lgl> 
#>  1      12515 2000-01-03 00300      OXYGEN, DISS…       6.19   6.19 NA    NA    
#>  2      12515 2000-03-14 00300      OXYGEN, DISS…       6.7    6.7   6.73 NA    
#>  3      12517 2000-03-14 00300      OXYGEN, DISS…       7.3    7.3   6.73 NA    
#>  4      12515 2000-03-16 00300      OXYGEN, DISS…       6.41   6.41  6.65 NA    
#>  5      12515 2000-05-03 00300      OXYGEN, DISS…       4.42   4.42  6.20 NA    
#>  6      12517 2000-06-14 00300      OXYGEN, DISS…       5.74   5.74  6.13 NA    
#>  7      12515 2000-06-15 00300      OXYGEN, DISS…       4.86   4.86  5.95 NA    
#>  8      12515 2000-07-11 00300      OXYGEN, DISS…       4.48   4.48  5.76 NA    
#>  9      12515 2000-09-12 00300      OXYGEN, DISS…       5.64   5.64  5.75 NA    
#> 10      12517 2000-10-17 00300      OXYGEN, DISS…       7.96   7.96  5.97 NA    
#> # ℹ 226 more rows
#> # ℹ 1 more variable: upr_ci <lgl>

We can use a tidy workflow:

Dissolved_Oxygen %>%
  group_by(Station_ID) %>%
  tbr_mean(Average_DO, Date, "years", 10)
#> # A tibble: 236 × 9
#>    Station_ID Date       Param_Code Param_Desc    Average_DO Min_DO  mean lwr_ci
#>         <int> <date>     <chr>      <chr>              <dbl>  <dbl> <dbl> <lgl> 
#>  1      12515 2000-01-03 00300      OXYGEN, DISS…       6.19   6.19 NA    NA    
#>  2      12515 2000-03-14 00300      OXYGEN, DISS…       6.7    6.7   6.44 NA    
#>  3      12517 2000-03-14 00300      OXYGEN, DISS…       7.3    7.3  NA    NA    
#>  4      12515 2000-03-16 00300      OXYGEN, DISS…       6.41   6.41  6.43 NA    
#>  5      12515 2000-05-03 00300      OXYGEN, DISS…       4.42   4.42  5.93 NA    
#>  6      12517 2000-06-14 00300      OXYGEN, DISS…       5.74   5.74  6.52 NA    
#>  7      12515 2000-06-15 00300      OXYGEN, DISS…       4.86   4.86  5.72 NA    
#>  8      12515 2000-07-11 00300      OXYGEN, DISS…       4.48   4.48  5.51 NA    
#>  9      12515 2000-09-12 00300      OXYGEN, DISS…       5.64   5.64  5.53 NA    
#> 10      12517 2000-10-17 00300      OXYGEN, DISS…       7.96   7.96  7    NA    
#> # ℹ 226 more rows
#> # ℹ 1 more variable: upr_ci <lgl>
…
